<svg width="32" height="33" viewBox="0 0 32 33" fill="none" xmlns="http://www.w3.org/2000/svg">
<path d="M26.6 28.3242C23.8222 28.3242 21.0778 27.7189 18.3667 26.5082C15.6556 25.2976 13.1889 23.5807 10.9667 21.3576C8.74445 19.1353 7.028 16.6687 5.81733 13.9576C4.60667 11.2464 4.00089 8.502 4 5.72422C4 5.32422 4.13333 4.99089 4.4 4.72422C4.66667 4.45755 5 4.32422 5.4 4.32422H10.8C11.1111 4.32422 11.3889 4.43 11.6333 4.64155C11.8778 4.85311 12.0222 5.10289 12.0667 5.39089L12.9333 10.0576C12.9778 10.4131 12.9667 10.7131 12.9 10.9576C12.8333 11.202 12.7111 11.4131 12.5333 11.5909L9.3 14.8576C9.74444 15.6798 10.272 16.474 10.8827 17.2402C11.4933 18.0064 12.1658 18.7456 12.9 19.4576C13.5889 20.1464 14.3111 20.7856 15.0667 21.3749C15.8222 21.9642 16.6222 22.5029 17.4667 22.9909L20.6 19.8576C20.8 19.6576 21.0613 19.5078 21.384 19.4082C21.7067 19.3087 22.0231 19.2807 22.3333 19.3242L26.9333 20.2576C27.2444 20.3464 27.5 20.5078 27.7 20.7416C27.9 20.9753 28 21.2362 28 21.5242V26.9242C28 27.3242 27.8667 27.6576 27.6 27.9242C27.3333 28.1909 27 28.3242 26.6 28.3242Z" fill="#4458FF"/>
</svg>
