<svg width="36" height="36" viewBox="0 0 36 36" fill="none" xmlns="http://www.w3.org/2000/svg">
<path d="M18.2618 3.14294C15.1122 3.14666 12.0927 4.39949 9.86552 6.62662C7.6384 8.85375 6.38556 11.8733 6.38185 15.0229C6.37808 17.5968 7.21883 20.1009 8.77513 22.1509C8.77513 22.1509 9.09913 22.5775 9.15205 22.6391L18.2618 33.3829L27.376 22.6337C27.4235 22.5765 27.7486 22.1509 27.7486 22.1509L27.7496 22.1477C29.3052 20.0985 30.1455 17.5956 30.1418 15.0229C30.1381 11.8733 28.8853 8.85375 26.6582 6.62662C24.431 4.39949 21.4115 3.14666 18.2618 3.14294ZM18.2618 19.3429C17.4074 19.3429 16.5722 19.0896 15.8618 18.6149C15.1514 18.1402 14.5977 17.4655 14.2707 16.6761C13.9437 15.8868 13.8582 15.0182 14.0249 14.1802C14.1915 13.3422 14.603 12.5724 15.2071 11.9682C15.8113 11.3641 16.5811 10.9526 17.4191 10.786C18.2571 10.6193 19.1257 10.7048 19.915 11.0318C20.7044 11.3588 21.3791 11.9125 21.8538 12.6229C22.3285 13.3333 22.5818 14.1685 22.5818 15.0229C22.5804 16.1682 22.1248 17.2662 21.315 18.0761C20.5051 18.8859 19.4071 19.3415 18.2618 19.3429Z" fill="white"/>
</svg>
