<svg width="69" height="68" viewBox="0 0 69 68" fill="none" xmlns="http://www.w3.org/2000/svg">
<circle cx="34.6393" cy="33.8601" r="33.86" fill="#C4C4C4"/>
<path d="M48.5933 18.6937H20.687C20.0158 18.6937 19.4736 19.2359 19.4736 19.907V47.8134C19.4736 48.4845 20.0158 49.0267 20.687 49.0267H48.5933C49.2644 49.0267 49.8066 48.4845 49.8066 47.8134V19.907C49.8066 19.2359 49.2644 18.6937 48.5933 18.6937ZM28.4711 44.5412H23.9705V30.0648H28.4711V44.5412ZM26.2227 28.0856C25.7068 28.0856 25.2024 27.9326 24.7734 27.6459C24.3444 27.3593 24.0101 26.9519 23.8127 26.4752C23.6152 25.9985 23.5636 25.474 23.6642 24.968C23.7649 24.462 24.0133 23.9972 24.3781 23.6323C24.743 23.2675 25.2078 23.0191 25.7138 22.9184C26.2198 22.8178 26.7443 22.8694 27.221 23.0669C27.6977 23.2643 28.1051 23.5987 28.3917 24.0277C28.6784 24.4566 28.8313 24.961 28.8313 25.4769C28.8276 26.9177 27.6597 28.0856 26.2227 28.0856ZM45.3211 44.5412H40.8242V37.5002C40.8242 35.8205 40.7939 33.663 38.4848 33.663C36.1454 33.663 35.7852 35.4906 35.7852 37.3788V44.5412H31.2921V30.0648H35.607V32.044H35.6676C36.2667 30.9065 37.7341 29.7046 39.9256 29.7046C44.4832 29.7046 45.3211 32.7038 45.3211 36.6015V44.5412Z" fill="#1F1F1F"/>
</svg>
